{
    "__default__" :
    {
        "account" : "b2014240",
        "time" : "03:00:00",
        "n" : 1,
        "partition" : "core"
    },
    "cutadapt_cut_paired_end" :
    {
        "time" : "30:00:00",
	"n" : 2
    },
    "bowtie2_align_pe" :
    {
	"time" : "24:00:00",
	"n" : 16
    },
    "qualimap_bamqc" :
    {
	"time" : "06:00:00",
	"n" : 16
    }
}
