Donor Id,Gender,Diabetic/Healthy,Msequenced
168,Female,Diabetic,136.71
174,Female,Healthy,170.94
180,Female,Diabetic,106.67
186,Male,Healthy,38.28
202,Male,Healthy,183.76
209,Female,Healthy,100.04
210,Male,Diabetic,89.46
211,Male,Healthy,102.92
212,Male,Diabetic,94.83
213,Female,Healthy,158.2
219,Male,Healthy,102.7
220,Male,Healthy,93.78
221,Female,Diabetic,100.74
222,Male,Healthy,77.04
95,Female,Diabetic,119.89
liver,,,46.7
