Scilifielab ID,Donor Id,submitter id ,Gender,Diabetic/Healthy,Barcode,Msequenced,Comments,
P2273_1001,186,Pool 1 (186),Male,Healthy,N703-N501 (AGGCAGAA-TAGATCGC),38.28,,
P2273_1002,202,Pool 1 (202),Male,Healthy,N706-N501 (TAGGCATG-TAGATCGC),126.76,merge the data with P1895_1002,
P2273_1003,211,Pool 2 (211),Male,Healthy,N704-N503 (TCCTGAGC-TATCCTCT),102.92,,
P2273_1004,210,Pool 2 (210),Male,Diabetic,N701-N503 (TAAGGCGA-TATCCTCT),89.46,,
P2273_1005,212,Pool 3 (212),Male,Diabetic,N702-N503 (CGTACTAG-TATCCTCT),94.83,,
P2273_1006,174,Pool 3 (174),Female,Healthy,N701-N502 (TAAGGCGA-CTCTCTAT),170.94,,
P2273_1007,180,Pool 4 (180) ,Female,Diabetic,N703-N502 (AGGCAGAA-CTCTCTAT),106.67,,
P2273_1008,95,Pool 4 (95) ,Female,Diabetic,N705-N502 (GGACTCCT-CTCTCTAT),119.89,,
P2273_1009,168,Pool 5 (168),Female,Diabetic,N706-N502 (TAGGCATG-CTCTCTAT),136.71,,
P2273_1010,209,Pool 5 (209),Female,Healthy,N703-N503 (AGGCAGAA-TATCCTCT),100.04,,
P2273_1011,219,Pool 6 (219),Male,Healthy,N701-N501 (TAAGGCGA-TAGATCGC),102.7,,
P2273_1012,220,Pool 6 (220),Male,Healthy,N702-N501 (CGTACTAG-TAGATCGC),93.78,,
P2273_1013,221,Pool 7 (221),Female,Diabetic,N702-N502 (CGTACTAG-CTCTCTAT),100.74,,
P2273_1014,222,Pool 7 (222),Male,Healthy,N703-N502 (AGGCAGAA-CTCTCTAT),77.04,,
P1895_1001,liver,,,,N701-N502 (TAAGGCGA-CTCTCTAT),46.7,Exclude from analysis,
P1895_1002,202,Pool2 (202),Male,Healthy,N704-N506 (TCCTGAGC-ACTGCATA),57,merge the data with P2273_1002,
P1895_1003,213,Pool2 (213),Female,Healthy,N702-N502 (CGTACTAG-CTCTCTAT),59,merge the data with P1895_1004 and P1895_1005, (Under undetermined due to wrong index no)
P1895_1004,213,Pool2 (213),Female,Healthy,N703-N501 (AGGCAGAA-TAGATCGC),51.3,merge the data with P1895_1003 and P1895_1005,
P1895_1005,213,Pool2 213),Female,Healthy,N704-N508 (TCCTGAGC-CTAAGCCT),47.9,merge the data with P1895_1003 and P1895_1004,
